"area_fips","own_code","industry_code","agglvl_code","size_code","year","qtr","disclosure_code","annual_avg_estabs","annual_avg_emplvl","total_annual_wages","taxable_annual_wages","annual_contributions","annual_avg_wkly_wage","avg_annual_pay","lq_disclosure_code","lq_annual_avg_estabs","lq_annual_avg_emplvl","lq_total_annual_wages","lq_taxable_annual_wages","lq_annual_contributions","lq_annual_avg_wkly_wage","lq_avg_annual_pay","oty_disclosure_code","oty_annual_avg_estabs_chg","oty_annual_avg_estabs_pct_chg","oty_annual_avg_emplvl_chg","oty_annual_avg_emplvl_pct_chg","oty_total_annual_wages_chg","oty_total_annual_wages_pct_chg","oty_taxable_annual_wages_chg","oty_taxable_annual_wages_pct_chg","oty_annual_contributions_chg","oty_annual_contributions_pct_chg","oty_annual_avg_wkly_wage_chg","oty_annual_avg_wkly_wage_pct_chg","oty_avg_annual_pay_chg","oty_avg_annual_pay_pct_chg"
"10000","0","10","50","0","2017","A","",31962,441873,24668830510,6333146913,94000276,1074,55828,"",1.00,1.00,1.00,1.00,1.00,1.00,1.00,"",247,0.8,3635,0.8,1107039851,4.7,134532222,2.2,-10776467,-10.3,40,3.9,2063,3.8
"10001","0","10","70","0","2017","A","",4042,66322,2821846049,747464375,11368849,818,42548,"",1.00,1.00,1.00,1.00,1.00,1.00,1.00,"",70,1.8,335,0.5,71808619,2.6,6491569,0.9,-2250724,-16.5,17,2.1,873,2.1
"10003","0","10","70","0","2017","A","",19779,288048,18099647144,4242822415,61243830,1208,62835,"",1.00,1.00,1.00,1.00,1.00,1.00,1.00,"",121,0.6,1482,0.5,908135104,5.3,83085500,2.0,-6933662,-10.2,54,4.7,2843,4.7
"10005","0","10","70","0","2017","A","",6768,79240,3130280886,1160481337,17857067,760,39504,"",1.00,1.00,1.00,1.00,1.00,1.00,1.00,"",213,3.2,2423,3.2,169249067,5.7,57945299,5.3,-758581,-4.1,19,2.6,958,2.5
"10999","0","10","70","0","2017","A","",1373,8264,617056431,182378786,3530530,1436,74667,"",1.00,1.00,1.00,1.00,1.00,1.00,1.00,"",-158,-10.3,-604,-6.8,-42152939,-6.4,-12990146,-6.6,-833500,-19.1,6,0.4,329,0.4
